Comment,Designator,Footprint,LCSC
"10uF","C1","Capacitor_SMD:C_0805_2012Metric","C15850"
"0.1uF","C2,C3,C4,C8","Capacitor_SMD:C_0805_2012Metric","C1790"
"1uF","C5","Capacitor_SMD:C_0805_2012Metric","C28323"
"220pF","C6,C7","Capacitor_SMD:C_0805_2012Metric","C53172"
"120 Ohm/1A","FB1,FB2","Inductor_SMD:L_0805_2012Metric","C76809"
"100","R1","Resistor_SMD:R_0805_2012Metric","C17408"
"R_POT_TRIM_US","RV1","Potentiometer_SMD:Potentiometer_Bourns_3314J_Vertical","C36376"
"74HC595","U1","Package_SO:SOIC-16_3.9x9.9mm_P1.27mm"," C5947"
"PAM8302","U3","Package_SO:SOP-8_3.9x4.9mm_P1.27mm","C112137"
